Homework 2
…
## Assuming "lon" and "lat" are longitude and latitude, respectively

map3b_pop

Luxury cars and repeat offenders

pdata500_group1 = pdata500 %>%
  group_by(PlateID) %>%
  summarise(n=n()) %>%
  arrange(desc(.$n))
pdata500_group1$Repeat = ifelse (pdata500_group1$n>1, "true","false")
pdata500_group1

## # A tibble: 472 x 3
##    PlateID     n Repeat
##    <fct>   <int> <chr> 
##  1 HHE4595     4 true  
##  2 KLW9213     4 true  
##  3 HZN4126     3 true  
##  4 JBY9095     3 true  
##  5 KHM5881     3 true  
##  6 GHF1299     2 true  
##  7 GTM6369     2 true  
##  8 GXF9721     2 true  
##  9 HSL9968     2 true  
## 10 HWY5998     2 true  
## #  with 462 more rows
…
